(footprint "jumper_3-pole_P2.54" (version 20211014) (generator pcbnew)
  (layer "F.Cu")
  (tedit 0)
  (attr smd)
  (fp_text reference "REF**" (at 0 -5.08 unlocked) (layer "F.SilkS")
    (effects (font (size 1 1) (thickness 0.15)))
    (tstamp 661bf6da-1a1a-40d9-9382-8f794ed45c62)
  )
  (fp_text value "jumper_3-pole_P2.54" (at 0 2.54 unlocked) (layer "F.Fab")
    (effects (font (size 1 1) (thickness 0.15)))
    (tstamp acf0f524-1db2-4e5a-8c73-fc45cd8efbf5)
  )
  (fp_text user "${REFERENCE}" (at 0 -5.08 unlocked) (layer "F.SilkS")
    (effects (font (size 1 1) (thickness 0.15)))
    (tstamp a292f9c1-bf8d-4d5b-973d-92e2242b183a)
  )
  (fp_text user "${REFERENCE}" (at 0 -5.08 unlocked) (layer "F.Fab")
    (effects (font (size 1 1) (thickness 0.15)))
    (tstamp a6cec0e5-1f15-4e69-8cf4-d8d0640b0a0c)
  )
  (fp_line (start 3.81 1.27) (end 3.81 -1.27) (layer "F.CrtYd") (width 0.05) (tstamp 0b832fbf-90c5-4bde-9973-fe853c763a71))
  (fp_line (start -1.27 1.27) (end 3.81 1.27) (layer "F.CrtYd") (width 0.05) (tstamp 14b5f026-a34e-4a21-a487-e52c89278bab))
  (fp_line (start 3.81 -1.27) (end 1.27 -1.27) (layer "F.CrtYd") (width 0.05) (tstamp 9a0b6d47-10a6-488e-8b1c-066e5165f747))
  (fp_line (start 1.27 -3.81) (end -1.27 -3.81) (layer "F.CrtYd") (width 0.05) (tstamp d560f751-94c4-4763-ab56-ba8855ea813a))
  (fp_line (start -1.27 -3.81) (end -1.27 1.27) (layer "F.CrtYd") (width 0.05) (tstamp db959897-a38f-470e-9f08-9976ab3ab3ee))
  (fp_line (start 1.27 -1.27) (end 1.27 -3.81) (layer "F.CrtYd") (width 0.05) (tstamp e366fb4b-7ea0-4b56-9f80-fa70627769fc))
  (pad "1" thru_hole circle (at 0 -2.54) (size 2.2 2.2) (drill 1.19) (layers *.Cu *.Mask) (tstamp cf40078b-6fea-4546-91fe-bf52d0b52970))
  (pad "2" thru_hole circle (at 0 0) (size 2.2 2.2) (drill 1.19) (layers *.Cu *.Mask) (tstamp 73bd908e-7995-4668-8de6-3d147d7bb41e))
  (pad "3" thru_hole circle (at 2.54 0) (size 2.2 2.2) (drill 1.19) (layers *.Cu *.Mask) (tstamp 8d283f09-c8e4-4bd6-93df-030e65940f61))
)
