(footprint "NPPN062GFNP-RC_PinSocket_02x06_p2mm_top_or_bottom_entry" (version 20221018) (generator pcbnew)
  (layer "F.Cu")
  (descr "surface-mounted straight pin header, 2x06, 2.00mm pitch, double rows")
  (tags "Surface mounted pin header SMD 2x06 2.00mm double row")
  (attr smd)
  (fp_text reference "REF**" (at 0 -7.06) (layer "F.SilkS")
      (effects (font (size 1 1) (thickness 0.15)))
    (tstamp c9a294ce-0ba1-4e48-9b0e-4deee5a6e4fc)
  )
  (fp_text value "NPPN062GFNP-RC_PinSocket_02x06_p2mm_top_or_bottom_entry" (at 0 7.06) (layer "F.Fab")
      (effects (font (size 1 1) (thickness 0.15)))
    (tstamp 87d2ddfb-26b4-405a-8f61-918e5de4a423)
  )
  (fp_text user "${REFERENCE}" (at -5.6 0 90) (layer "F.Fab")
      (effects (font (size 1 1) (thickness 0.15)))
    (tstamp 1bd82b25-5b24-4cc4-a0f5-487e2adced61)
  )
  (fp_line (start -3.315 -5.76) (end -2.06 -5.76)
    (stroke (width 0.12) (type solid)) (layer "F.SilkS") (tstamp 307a9ce8-447f-4da8-871e-ee779d88b2f8))
  (fp_line (start -2.06 -6.06) (end -2.06 -5.76)
    (stroke (width 0.12) (type solid)) (layer "F.SilkS") (tstamp 70fd5567-d114-4f6d-a226-a2b7312b4f93))
  (fp_line (start -2.06 -6.06) (end 2.06 -6.06)
    (stroke (width 0.12) (type solid)) (layer "F.SilkS") (tstamp 72e4cd2b-621f-47eb-80af-19e166d3434d))
  (fp_line (start -2.06 -4.24) (end -2.06 -3.76)
    (stroke (width 0.12) (type solid)) (layer "F.SilkS") (tstamp 26e0ff1a-f4aa-40b9-b45b-3ab45230ef08))
  (fp_line (start -2.06 -2.24) (end -2.06 -1.76)
    (stroke (width 0.12) (type solid)) (layer "F.SilkS") (tstamp 879ec525-8bb4-433a-9ddb-9c9c1688f33c))
  (fp_line (start -2.06 -0.24) (end -2.06 0.24)
    (stroke (width 0.12) (type solid)) (layer "F.SilkS") (tstamp 379c1596-07b2-462e-abfe-80c60fc57421))
  (fp_line (start -2.06 1.76) (end -2.06 2.24)
    (stroke (width 0.12) (type solid)) (layer "F.SilkS") (tstamp 571580eb-9305-4124-97a3-ca738850912d))
  (fp_line (start -2.06 3.76) (end -2.06 4.24)
    (stroke (width 0.12) (type solid)) (layer "F.SilkS") (tstamp b4ecf808-c04a-4309-a889-0158f3e57c65))
  (fp_line (start -2.06 5.76) (end -2.06 6.06)
    (stroke (width 0.12) (type solid)) (layer "F.SilkS") (tstamp 86035ff4-b262-4430-bceb-6bd84aa62928))
  (fp_line (start -2.06 6.06) (end 2.06 6.06)
    (stroke (width 0.12) (type solid)) (layer "F.SilkS") (tstamp c58d028a-60bb-4319-a2c4-4a92ae935620))
  (fp_line (start 2.06 -6.06) (end 2.06 -5.76)
    (stroke (width 0.12) (type solid)) (layer "F.SilkS") (tstamp 1353b32e-c02a-4808-8ec2-7460b45e75b8))
  (fp_line (start 2.06 -4.24) (end 2.06 -3.76)
    (stroke (width 0.12) (type solid)) (layer "F.SilkS") (tstamp 69a39eb6-9011-4bfc-9692-4f2f966ddc38))
  (fp_line (start 2.06 -2.24) (end 2.06 -1.76)
    (stroke (width 0.12) (type solid)) (layer "F.SilkS") (tstamp 2a38b549-2eb5-4908-8b1e-dd5f165b4069))
  (fp_line (start 2.06 -0.24) (end 2.06 0.24)
    (stroke (width 0.12) (type solid)) (layer "F.SilkS") (tstamp 607db3ef-7535-418e-85b3-4e3b0b646724))
  (fp_line (start 2.06 1.76) (end 2.06 2.24)
    (stroke (width 0.12) (type solid)) (layer "F.SilkS") (tstamp 81139ee3-b43b-4769-a87c-6cb9cc16cc38))
  (fp_line (start 2.06 3.76) (end 2.06 4.24)
    (stroke (width 0.12) (type solid)) (layer "F.SilkS") (tstamp 5a5c8ec3-be4b-4d61-83dc-ee90f770838a))
  (fp_line (start 2.06 5.76) (end 2.06 6.06)
    (stroke (width 0.12) (type solid)) (layer "F.SilkS") (tstamp 6a028bc2-a7dd-4550-ad13-b094ba44208d))
  (fp_circle (center -1 -5) (end -0.5 -5)
    (stroke (width 0.12) (type default)) (fill none) (layer "Edge.Cuts") (tstamp 08710261-9ca2-4d4a-bda2-07ac868faad8))
  (fp_circle (center -1 -3) (end -0.5 -3)
    (stroke (width 0.12) (type default)) (fill none) (layer "Edge.Cuts") (tstamp 3383d439-1848-4852-bb29-86282cb56a49))
  (fp_circle (center -1 -1) (end -0.5 -1)
    (stroke (width 0.12) (type default)) (fill none) (layer "Edge.Cuts") (tstamp 94547631-ea14-432b-a958-bf2612cd435e))
  (fp_circle (center -1 1) (end -0.5 1)
    (stroke (width 0.12) (type default)) (fill none) (layer "Edge.Cuts") (tstamp 921b4973-c8cd-4084-8e3f-b5c0f409bad6))
  (fp_circle (center -1 3) (end -0.5 3)
    (stroke (width 0.12) (type default)) (fill none) (layer "Edge.Cuts") (tstamp 22a0dee5-1a9d-42aa-9528-2b04c82fe5f1))
  (fp_circle (center -1 5) (end -0.5 5)
    (stroke (width 0.12) (type default)) (fill none) (layer "Edge.Cuts") (tstamp 4dd7a60d-4163-4ddb-b2a7-7e63bb2ff8c5))
  (fp_circle (center 0 -4) (end 0.6 -4)
    (stroke (width 0.12) (type default)) (fill none) (layer "Edge.Cuts") (tstamp 4ec8f3e0-d6c7-4e70-9cae-2884df5897e7))
  (fp_circle (center 0 4) (end 0.6 4)
    (stroke (width 0.12) (type default)) (fill none) (layer "Edge.Cuts") (tstamp a8f6118a-0128-44a6-85e6-73cb76b713b6))
  (fp_circle (center 1 -5) (end 1.5 -5)
    (stroke (width 0.12) (type default)) (fill none) (layer "Edge.Cuts") (tstamp fccf1460-661b-480a-9023-79c596e8fcc6))
  (fp_circle (center 1 -3) (end 1.5 -3)
    (stroke (width 0.12) (type default)) (fill none) (layer "Edge.Cuts") (tstamp 5e547b55-ee0a-4304-8c6e-1cf5f652d388))
  (fp_circle (center 1 -1) (end 1.5 -1)
    (stroke (width 0.12) (type default)) (fill none) (layer "Edge.Cuts") (tstamp a53ffe42-54ec-4671-af5f-a6960ce3e338))
  (fp_circle (center 1 1) (end 1.5 1)
    (stroke (width 0.12) (type default)) (fill none) (layer "Edge.Cuts") (tstamp 073718c8-8505-4da2-85a2-a4b494023bee))
  (fp_circle (center 1 3) (end 1.5 3)
    (stroke (width 0.12) (type default)) (fill none) (layer "Edge.Cuts") (tstamp 0eacc2ba-30a8-40e9-ad27-f850b8215a4d))
  (fp_circle (center 1 5) (end 1.5 5)
    (stroke (width 0.12) (type default)) (fill none) (layer "Edge.Cuts") (tstamp 1512e4c5-da6c-43c6-8389-b3dd05767fd7))
  (fp_line (start -4.9 -6.5) (end -4.9 6.5)
    (stroke (width 0.05) (type solid)) (layer "F.CrtYd") (tstamp bc7a4917-6df2-43f7-ab74-b49a0b103001))
  (fp_line (start -4.9 6.5) (end 4.9 6.5)
    (stroke (width 0.05) (type solid)) (layer "F.CrtYd") (tstamp c2b33a75-379b-4164-ba4e-d8039649563f))
  (fp_line (start 4.9 -6.5) (end -4.9 -6.5)
    (stroke (width 0.05) (type solid)) (layer "F.CrtYd") (tstamp dc24745c-5066-4623-a2a0-7d4d1cc7df36))
  (fp_line (start 4.9 6.5) (end 4.9 -6.5)
    (stroke (width 0.05) (type solid)) (layer "F.CrtYd") (tstamp c597f11a-6adc-4a9d-837b-0417e4c4c05f))
  (fp_line (start -2.875 -5.25) (end -2.875 -4.75)
    (stroke (width 0.1) (type solid)) (layer "F.Fab") (tstamp 9ded6bc7-9a06-460d-b30d-3c7eeee3cca9))
  (fp_line (start -2.875 -4.75) (end -2 -4.75)
    (stroke (width 0.1) (type solid)) (layer "F.Fab") (tstamp cab2a763-c5e1-4c72-a659-88ea07628c04))
  (fp_line (start -2.875 -3.25) (end -2.875 -2.75)
    (stroke (width 0.1) (type solid)) (layer "F.Fab") (tstamp 54318b36-9703-485d-9842-eca5e097ec53))
  (fp_line (start -2.875 -2.75) (end -2 -2.75)
    (stroke (width 0.1) (type solid)) (layer "F.Fab") (tstamp c00a857d-5150-49f0-a610-58312f5467c5))
  (fp_line (start -2.875 -1.25) (end -2.875 -0.75)
    (stroke (width 0.1) (type solid)) (layer "F.Fab") (tstamp 98758a43-7ffe-41f1-bc63-e6cb6a436bca))
  (fp_line (start -2.875 -0.75) (end -2 -0.75)
    (stroke (width 0.1) (type solid)) (layer "F.Fab") (tstamp 62d27756-3d5e-47a8-bf56-6096931329f5))
  (fp_line (start -2.875 0.75) (end -2.875 1.25)
    (stroke (width 0.1) (type solid)) (layer "F.Fab") (tstamp 8dc9f561-4b5d-4ad2-9c31-0de2624c5a81))
  (fp_line (start -2.875 1.25) (end -2 1.25)
    (stroke (width 0.1) (type solid)) (layer "F.Fab") (tstamp c5d8c7aa-014e-4428-b31a-4d5f689e0fc5))
  (fp_line (start -2.875 2.75) (end -2.875 3.25)
    (stroke (width 0.1) (type solid)) (layer "F.Fab") (tstamp 805da160-62d3-4bbb-a75e-2397f857dc3f))
  (fp_line (start -2.875 3.25) (end -2 3.25)
    (stroke (width 0.1) (type solid)) (layer "F.Fab") (tstamp 27c7720c-8a1e-48cb-8119-5c42aa820b84))
  (fp_line (start -2.875 4.75) (end -2.875 5.25)
    (stroke (width 0.1) (type solid)) (layer "F.Fab") (tstamp 3f31c8a9-0da1-471c-9290-95bbcafdb0a5))
  (fp_line (start -2.875 5.25) (end -2 5.25)
    (stroke (width 0.1) (type solid)) (layer "F.Fab") (tstamp c93710fa-c987-4f83-910b-f229886564c6))
  (fp_line (start -2 -5.25) (end -2.875 -5.25)
    (stroke (width 0.1) (type solid)) (layer "F.Fab") (tstamp cc0d8acd-7fbf-47cd-9ef6-69e1bbc136b7))
  (fp_line (start -2 -5.25) (end -1.25 -6)
    (stroke (width 0.1) (type solid)) (layer "F.Fab") (tstamp 601b0250-3489-4013-bb18-a99699e265f1))
  (fp_line (start -2 -3.25) (end -2.875 -3.25)
    (stroke (width 0.1) (type solid)) (layer "F.Fab") (tstamp 9e289459-8038-4ce1-a0e2-440bd5acc0ec))
  (fp_line (start -2 -1.25) (end -2.875 -1.25)
    (stroke (width 0.1) (type solid)) (layer "F.Fab") (tstamp 3c381bf9-9159-4a45-a7fe-4eec65c4b325))
  (fp_line (start -2 0.75) (end -2.875 0.75)
    (stroke (width 0.1) (type solid)) (layer "F.Fab") (tstamp 50914073-d1b5-40d4-9735-adde8e340a01))
  (fp_line (start -2 2.75) (end -2.875 2.75)
    (stroke (width 0.1) (type solid)) (layer "F.Fab") (tstamp f6ca7bfd-8496-4bef-9265-0bec58c2a430))
  (fp_line (start -2 4.75) (end -2.875 4.75)
    (stroke (width 0.1) (type solid)) (layer "F.Fab") (tstamp b1000afe-beba-474c-96af-e98da72d3d78))
  (fp_line (start -2 6) (end -2 -5.25)
    (stroke (width 0.1) (type solid)) (layer "F.Fab") (tstamp 638d80d7-aeef-46db-be89-5349c45ec81d))
  (fp_line (start -1.25 -6) (end 2 -6)
    (stroke (width 0.1) (type solid)) (layer "F.Fab") (tstamp 64cf4c55-b592-421e-a0f9-cf2efe035305))
  (fp_line (start 2 -6) (end 2 6)
    (stroke (width 0.1) (type solid)) (layer "F.Fab") (tstamp eaf6465e-80f6-4b4d-9b3b-c1b2128336ca))
  (fp_line (start 2 -5.25) (end 2.875 -5.25)
    (stroke (width 0.1) (type solid)) (layer "F.Fab") (tstamp cb2b0c2f-1315-4026-85df-78b0f7f363bd))
  (fp_line (start 2 -3.25) (end 2.875 -3.25)
    (stroke (width 0.1) (type solid)) (layer "F.Fab") (tstamp a57c8133-cd26-4101-869b-b2473b2b8dbd))
  (fp_line (start 2 -1.25) (end 2.875 -1.25)
    (stroke (width 0.1) (type solid)) (layer "F.Fab") (tstamp 656b012c-2395-4fe2-80e2-3994b9078437))
  (fp_line (start 2 0.75) (end 2.875 0.75)
    (stroke (width 0.1) (type solid)) (layer "F.Fab") (tstamp f3fb5fcb-9bb0-4ff3-8e62-2176d107364a))
  (fp_line (start 2 2.75) (end 2.875 2.75)
    (stroke (width 0.1) (type solid)) (layer "F.Fab") (tstamp da0c359a-cdff-4fb8-95c0-939249c8e155))
  (fp_line (start 2 4.75) (end 2.875 4.75)
    (stroke (width 0.1) (type solid)) (layer "F.Fab") (tstamp 9bbbeb94-fb04-42af-acbb-947e8e5c1027))
  (fp_line (start 2 6) (end -2 6)
    (stroke (width 0.1) (type solid)) (layer "F.Fab") (tstamp e43bc288-206b-4745-90b7-fb11c20bcc96))
  (fp_line (start 2.875 -5.25) (end 2.875 -4.75)
    (stroke (width 0.1) (type solid)) (layer "F.Fab") (tstamp e22d5078-df0c-40d4-b6aa-a35f699fd8c0))
  (fp_line (start 2.875 -4.75) (end 2 -4.75)
    (stroke (width 0.1) (type solid)) (layer "F.Fab") (tstamp 8269d236-331a-49f5-97eb-3516fd1c8296))
  (fp_line (start 2.875 -3.25) (end 2.875 -2.75)
    (stroke (width 0.1) (type solid)) (layer "F.Fab") (tstamp 4c481735-dea6-4980-b5ae-80cdc5cae7a2))
  (fp_line (start 2.875 -2.75) (end 2 -2.75)
    (stroke (width 0.1) (type solid)) (layer "F.Fab") (tstamp 0f6c87cf-ebd4-4f1d-91c2-1cdd7e1c4792))
  (fp_line (start 2.875 -1.25) (end 2.875 -0.75)
    (stroke (width 0.1) (type solid)) (layer "F.Fab") (tstamp e2192a71-cc47-4caf-9786-d7cdd1ff7409))
  (fp_line (start 2.875 -0.75) (end 2 -0.75)
    (stroke (width 0.1) (type solid)) (layer "F.Fab") (tstamp 1d86c36d-411f-4aa7-8834-06b762684490))
  (fp_line (start 2.875 0.75) (end 2.875 1.25)
    (stroke (width 0.1) (type solid)) (layer "F.Fab") (tstamp 5816d9d1-e4f6-48c7-9e96-4f0b66dd5960))
  (fp_line (start 2.875 1.25) (end 2 1.25)
    (stroke (width 0.1) (type solid)) (layer "F.Fab") (tstamp 9ca99309-7ac0-400b-80ca-1b666a1a6f6f))
  (fp_line (start 2.875 2.75) (end 2.875 3.25)
    (stroke (width 0.1) (type solid)) (layer "F.Fab") (tstamp d4d29292-124e-40bb-af2f-ae1fdb6083d3))
  (fp_line (start 2.875 3.25) (end 2 3.25)
    (stroke (width 0.1) (type solid)) (layer "F.Fab") (tstamp b4d98ed3-843a-49e3-a446-f3f8bd6e5af5))
  (fp_line (start 2.875 4.75) (end 2.875 5.25)
    (stroke (width 0.1) (type solid)) (layer "F.Fab") (tstamp 49661988-99b6-48bb-951c-431464220be5))
  (fp_line (start 2.875 5.25) (end 2 5.25)
    (stroke (width 0.1) (type solid)) (layer "F.Fab") (tstamp f654545e-6187-48dc-9e3c-4d1e9a83a2fc))
  (pad "1" smd rect (at -2.6 -5) (size 1.8 1) (layers "F.Cu" "F.Paste" "F.Mask") (tstamp 765a971d-5120-4eff-81e0-080a8c2711b2))
  (pad "2" smd rect (at 2.6 -5) (size 1.8 1) (layers "F.Cu" "F.Paste" "F.Mask") (tstamp 086f996d-02db-40be-952f-bc32617dc8f1))
  (pad "3" smd rect (at -2.6 -3) (size 1.8 1) (layers "F.Cu" "F.Paste" "F.Mask") (tstamp 7f5fd6db-b49f-4a8b-886d-dc23dd4fb938))
  (pad "4" smd rect (at 2.6 -3) (size 1.8 1) (layers "F.Cu" "F.Paste" "F.Mask") (tstamp 683b3278-a7ea-42d9-8de5-8224008e5bbd))
  (pad "5" smd rect (at -2.6 -1) (size 1.8 1) (layers "F.Cu" "F.Paste" "F.Mask") (tstamp 75de91a3-c493-4e38-932b-ec18cc5bf716))
  (pad "6" smd rect (at 2.6 -1) (size 1.8 1) (layers "F.Cu" "F.Paste" "F.Mask") (tstamp f5c12526-44e3-44e7-ac44-1393e7483635))
  (pad "7" smd rect (at -2.6 1) (size 1.8 1) (layers "F.Cu" "F.Paste" "F.Mask") (tstamp c5e1ba9c-e32f-41b5-992e-6494daf1f9a9))
  (pad "8" smd rect (at 2.6 1) (size 1.8 1) (layers "F.Cu" "F.Paste" "F.Mask") (tstamp 2df1f346-e28f-4c61-b24d-46d2179d3c5f))
  (pad "9" smd rect (at -2.6 3) (size 1.8 1) (layers "F.Cu" "F.Paste" "F.Mask") (tstamp 34f0bdd9-22b2-43b6-be99-88144f20fd64))
  (pad "10" smd rect (at 2.6 3) (size 1.8 1) (layers "F.Cu" "F.Paste" "F.Mask") (tstamp 1f61cc7f-9054-46ba-9f15-23f6db6e959e))
  (pad "11" smd rect (at -2.6 5) (size 1.8 1) (layers "F.Cu" "F.Paste" "F.Mask") (tstamp 9660f469-7439-4fc1-9f0b-78abe4da9c43))
  (pad "12" smd rect (at 2.6 5) (size 1.8 1) (layers "F.Cu" "F.Paste" "F.Mask") (tstamp 24af3b97-ddee-4f3e-a458-ad9ac674c25d))
  (model ":KICAD6_USER_LIBS:nnvtn_kicad_library/nnvtn_kicad_library.3dshapes/BF080-12-A-1-N-C.stp"
    (offset (xyz 0 6 0))
    (scale (xyz 1 1 1))
    (rotate (xyz -90 0 90))
  )
)
